{
    "page": 1,
    "per_page": 15,
    "photos": [
        {
            "id": 29432267,
            "width": 2560,
            "height": 3840,
            "url": "https://www.pexels.com/photo/young-couple-enjoying-a-sunny-walk-outdoors-29432267/",
            "photographer": "Henry Acevedo",
            "photographer_url": "https://www.pexels.com/@henry-acevedo-382866382",
            "photographer_id": 382866382,
            "avg_color": "#79715C",
            "src": {
                "original": "https://images.pexels.com/photos/29432267/pexels-photo-29432267.jpeg",
                "large2x": "https://images.pexels.com/photos/29432267/pexels-photo-29432267.jpeg?auto=compress&cs=tinysrgb&dpr=2&h=650&w=940",
                "large": "https://images.pexels.com/photos/29432267/pexels-photo-29432267.jpeg?auto=compress&cs=tinysrgb&h=650&w=940",
                "medium": "https://images.pexels.com/photos/29432267/pexels-photo-29432267.jpeg?auto=compress&cs=tinysrgb&h=350",
                "small": "https://images.pexels.com/photos/29432267/pexels-photo-29432267.jpeg?auto=compress&cs=tinysrgb&h=130",
                "portrait": "https://images.pexels.com/photos/29432267/pexels-photo-29432267.jpeg?auto=compress&cs=tinysrgb&fit=crop&h=1200&w=800",
                "landscape": "https://images.pexels.com/photos/29432267/pexels-photo-29432267.jpeg?auto=compress&cs=tinysrgb&fit=crop&h=627&w=1200",
                "tiny": "https://images.pexels.com/photos/29432267/pexels-photo-29432267.jpeg?auto=compress&cs=tinysrgb&dpr=1&fit=crop&h=200&w=280"
            },
            "liked": false,
            "alt": "A smiling young couple walks in sunlight, enjoying an outdoor stroll together."
        },
        {
            "id": 29756547,
            "width": 2316,
            "height": 4080,
            "url": "https://www.pexels.com/photo/abstract-green-brush-strokes-on-canvas-29756547/",
            "photographer": "Julian Cabrera S",
            "photographer_url": "https://www.pexels.com/@julian-cabrera-s-3685809",
            "photographer_id": 3685809,
            "avg_color": "#ADA37F",
            "src": {
                "original": "https://images.pexels.com/photos/29756547/pexels-photo-29756547.jpeg",
                "large2x": "https://images.pexels.com/photos/29756547/pexels-photo-29756547.jpeg?auto=compress&cs=tinysrgb&dpr=2&h=650&w=940",
                "large": "https://images.pexels.com/photos/29756547/pexels-photo-29756547.jpeg?auto=compress&cs=tinysrgb&h=650&w=940",
                "medium": "https://images.pexels.com/photos/29756547/pexels-photo-29756547.jpeg?auto=compress&cs=tinysrgb&h=350",
                "small": "https://images.pexels.com/photos/29756547/pexels-photo-29756547.jpeg?auto=compress&cs=tinysrgb&h=130",
                "portrait": "https://images.pexels.com/photos/29756547/pexels-photo-29756547.jpeg?auto=compress&cs=tinysrgb&fit=crop&h=1200&w=800",
                "landscape": "https://images.pexels.com/photos/29756547/pexels-photo-29756547.jpeg?auto=compress&cs=tinysrgb&fit=crop&h=627&w=1200",
                "tiny": "https://images.pexels.com/photos/29756547/pexels-photo-29756547.jpeg?auto=compress&cs=tinysrgb&dpr=1&fit=crop&h=200&w=280"
            },
            "liked": false,
            "alt": "Close-up of green paint swatches on a canvas with textured brush strokes."
        },
        {
            "id": 35508949,
            "width": 3334,
            "height": 5001,
            "url": "https://www.pexels.com/photo/close-up-of-lush-green-leaves-in-nature-35508949/",
            "photographer": "ansiveg",
            "photographer_url": "https://www.pexels.com/@ansiveg-503041838",
            "photographer_id": 503041838,
            "avg_color": "#494B26",
            "src": {
                "original": "https://images.pexels.com/photos/35508949/pexels-photo-35508949.jpeg",
                "large2x": "https://images.pexels.com/photos/35508949/pexels-photo-35508949.jpeg?auto=compress&cs=tinysrgb&dpr=2&h=650&w=940",
                "large": "https://images.pexels.com/photos/35508949/pexels-photo-35508949.jpeg?auto=compress&cs=tinysrgb&h=650&w=940",
                "medium": "https://images.pexels.com/photos/35508949/pexels-photo-35508949.jpeg?auto=compress&cs=tinysrgb&h=350",
                "small": "https://images.pexels.com/photos/35508949/pexels-photo-35508949.jpeg?auto=compress&cs=tinysrgb&h=130",
                "portrait": "https://images.pexels.com/photos/35508949/pexels-photo-35508949.jpeg?auto=compress&cs=tinysrgb&fit=crop&h=1200&w=800",
                "landscape": "https://images.pexels.com/photos/35508949/pexels-photo-35508949.jpeg?auto=compress&cs=tinysrgb&fit=crop&h=627&w=1200",
                "tiny": "https://images.pexels.com/photos/35508949/pexels-photo-35508949.jpeg?auto=compress&cs=tinysrgb&dpr=1&fit=crop&h=200&w=280"
            },
            "liked": false,
            "alt": "Detailed view of overlapping green leaves in a natural setting, showcasing texture and color."
        },
        {
            "id": 35715005,
            "width": 5152,
            "height": 7728,
            "url": "https://www.pexels.com/photo/stylish-male-portrait-in-urban-ghanaian-setting-35715005/",
            "photographer": "Creative KG",
            "photographer_url": "https://www.pexels.com/@kgstudios",
            "photographer_id": 32887655,
            "avg_color": "#8C7C6D",
            "src": {
                "original": "https://images.pexels.com/photos/35715005/pexels-photo-35715005.jpeg",
                "large2x": "https://images.pexels.com/photos/35715005/pexels-photo-35715005.jpeg?auto=compress&cs=tinysrgb&dpr=2&h=650&w=940",
                "large": "https://images.pexels.com/photos/35715005/pexels-photo-35715005.jpeg?auto=compress&cs=tinysrgb&h=650&w=940",
                "medium": "https://images.pexels.com/photos/35715005/pexels-photo-35715005.jpeg?auto=compress&cs=tinysrgb&h=350",
                "small": "https://images.pexels.com/photos/35715005/pexels-photo-35715005.jpeg?auto=compress&cs=tinysrgb&h=130",
                "portrait": "https://images.pexels.com/photos/35715005/pexels-photo-35715005.jpeg?auto=compress&cs=tinysrgb&fit=crop&h=1200&w=800",
                "landscape": "https://images.pexels.com/photos/35715005/pexels-photo-35715005.jpeg?auto=compress&cs=tinysrgb&fit=crop&h=627&w=1200",
                "tiny": "https://images.pexels.com/photos/35715005/pexels-photo-35715005.jpeg?auto=compress&cs=tinysrgb&dpr=1&fit=crop&h=200&w=280"
            },
            "liked": false,
            "alt": "Confident young man posing outdoors in Ghana, showcasing modern and stylish fashion."
        },
        {
            "id": 28399939,
            "width": 3958,
            "height": 5937,
            "url": "https://www.pexels.com/photo/creative-perspective-photo-of-architectural-corridor-28399939/",
            "photographer": "Riccardo Vespa",
            "photographer_url": "https://www.pexels.com/@riccardo-vespa-594469796",
            "photographer_id": 594469796,
            "avg_color": "#8D7D6E",
            "src": {
                "original": "https://images.pexels.com/photos/28399939/pexels-photo-28399939.jpeg",
                "large2x": "https://images.pexels.com/photos/28399939/pexels-photo-28399939.jpeg?auto=compress&cs=tinysrgb&dpr=2&h=650&w=940",
                "large": "https://images.pexels.com/photos/28399939/pexels-photo-28399939.jpeg?auto=compress&cs=tinysrgb&h=650&w=940",
                "medium": "https://images.pexels.com/photos/28399939/pexels-photo-28399939.jpeg?auto=compress&cs=tinysrgb&h=350",
                "small": "https://images.pexels.com/photos/28399939/pexels-photo-28399939.jpeg?auto=compress&cs=tinysrgb&h=130",
                "portrait": "https://images.pexels.com/photos/28399939/pexels-photo-28399939.jpeg?auto=compress&cs=tinysrgb&fit=crop&h=1200&w=800",
                "landscape": "https://images.pexels.com/photos/28399939/pexels-photo-28399939.jpeg?auto=compress&cs=tinysrgb&fit=crop&h=627&w=1200",
                "tiny": "https://images.pexels.com/photos/28399939/pexels-photo-28399939.jpeg?auto=compress&cs=tinysrgb&dpr=1&fit=crop&h=200&w=280"
            },
            "liked": false,
            "alt": "Exploring perspective using a black and white photo held in a modern corridor."
        },
        {
            "id": 36288257,
            "width": 4000,
            "height": 6000,
            "url": "https://www.pexels.com/photo/motorcyclist-riding-through-gandaki-province-cliffs-36288257/",
            "photographer": "Puskar Rai",
            "photographer_url": "https://www.pexels.com/@puskar-rai-2536703",
            "photographer_id": 2536703,
            "avg_color": "#89726A",
            "src": {
                "original": "https://images.pexels.com/photos/36288257/pexels-photo-36288257.jpeg",
                "large2x": "https://images.pexels.com/photos/36288257/pexels-photo-36288257.jpeg?auto=compress&cs=tinysrgb&dpr=2&h=650&w=940",
                "large": "https://images.pexels.com/photos/36288257/pexels-photo-36288257.jpeg?auto=compress&cs=tinysrgb&h=650&w=940",
                "medium": "https://images.pexels.com/photos/36288257/pexels-photo-36288257.jpeg?auto=compress&cs=tinysrgb&h=350",
                "small": "https://images.pexels.com/photos/36288257/pexels-photo-36288257.jpeg?auto=compress&cs=tinysrgb&h=130",
                "portrait": "https://images.pexels.com/photos/36288257/pexels-photo-36288257.jpeg?auto=compress&cs=tinysrgb&fit=crop&h=1200&w=800",
                "landscape": "https://images.pexels.com/photos/36288257/pexels-photo-36288257.jpeg?auto=compress&cs=tinysrgb&fit=crop&h=627&w=1200",
                "tiny": "https://images.pexels.com/photos/36288257/pexels-photo-36288257.jpeg?auto=compress&cs=tinysrgb&dpr=1&fit=crop&h=200&w=280"
            },
            "liked": false,
            "alt": "Adventurous motorcyclist navigating rugged cliffs in Gandaki Province, Nepal."
        },
        {
            "id": 35549707,
            "width": 4160,
            "height": 6240,
            "url": "https://www.pexels.com/photo/vintage-wooden-chair-with-intricate-blanket-35549707/",
            "photographer": "Tito Zzzz",
            "photographer_url": "https://www.pexels.com/@tizzy",
            "photographer_id": 505010240,
            "avg_color": "#8E7E71",
            "src": {
                "original": "https://images.pexels.com/photos/35549707/pexels-photo-35549707.jpeg",
                "large2x": "https://images.pexels.com/photos/35549707/pexels-photo-35549707.jpeg?auto=compress&cs=tinysrgb&dpr=2&h=650&w=940",
                "large": "https://images.pexels.com/photos/35549707/pexels-photo-35549707.jpeg?auto=compress&cs=tinysrgb&h=650&w=940",
                "medium": "https://images.pexels.com/photos/35549707/pexels-photo-35549707.jpeg?auto=compress&cs=tinysrgb&h=350",
                "small": "https://images.pexels.com/photos/35549707/pexels-photo-35549707.jpeg?auto=compress&cs=tinysrgb&h=130",
                "portrait": "https://images.pexels.com/photos/35549707/pexels-photo-35549707.jpeg?auto=compress&cs=tinysrgb&fit=crop&h=1200&w=800",
                "landscape": "https://images.pexels.com/photos/35549707/pexels-photo-35549707.jpeg?auto=compress&cs=tinysrgb&fit=crop&h=627&w=1200",
                "tiny": "https://images.pexels.com/photos/35549707/pexels-photo-35549707.jpeg?auto=compress&cs=tinysrgb&dpr=1&fit=crop&h=200&w=280"
            },
            "liked": false,
            "alt": "Sunlit vintage wooden chair draped with an artistic blue patterned blanket outdoors."
        },
        {
            "id": 36428105,
            "width": 3969,
            "height": 4961,
            "url": "https://www.pexels.com/photo/urban-delivery-scooter-in-motion-on-busy-osaka-street-36428105/",
            "photographer": "Danique Veldhuis",
            "photographer_url": "https://www.pexels.com/@daniqux",
            "photographer_id": 251773823,
            "avg_color": "#8F8480",
            "src": {
                "original": "https://images.pexels.com/photos/36428105/pexels-photo-36428105.jpeg",
                "large2x": "https://images.pexels.com/photos/36428105/pexels-photo-36428105.jpeg?auto=compress&cs=tinysrgb&dpr=2&h=650&w=940",
                "large": "https://images.pexels.com/photos/36428105/pexels-photo-36428105.jpeg?auto=compress&cs=tinysrgb&h=650&w=940",
                "medium": "https://images.pexels.com/photos/36428105/pexels-photo-36428105.jpeg?auto=compress&cs=tinysrgb&h=350",
                "small": "https://images.pexels.com/photos/36428105/pexels-photo-36428105.jpeg?auto=compress&cs=tinysrgb&h=130",
                "portrait": "https://images.pexels.com/photos/36428105/pexels-photo-36428105.jpeg?auto=compress&cs=tinysrgb&fit=crop&h=1200&w=800",
                "landscape": "https://images.pexels.com/photos/36428105/pexels-photo-36428105.jpeg?auto=compress&cs=tinysrgb&fit=crop&h=627&w=1200",
                "tiny": "https://images.pexels.com/photos/36428105/pexels-photo-36428105.jpeg?auto=compress&cs=tinysrgb&dpr=1&fit=crop&h=200&w=280"
            },
            "liked": false,
            "alt": "A delivery rider on a scooter speeds through a busy city street in Osaka, Japan, capturing urban hustle and motion."
        },
        {
            "id": 7245231,
            "width": 4912,
            "height": 7360,
            "url": "https://www.pexels.com/photo/aged-house-facade-with-decor-in-city-7245231/",
            "photographer": "Olga Lioncat",
            "photographer_url": "https://www.pexels.com/@olgalioncat",
            "photographer_id": 35450783,
            "avg_color": "#856F5E",
            "src": {
                "original": "https://images.pexels.com/photos/7245231/pexels-photo-7245231.jpeg",
                "large2x": "https://images.pexels.com/photos/7245231/pexels-photo-7245231.jpeg?auto=compress&cs=tinysrgb&dpr=2&h=650&w=940",
                "large": "https://images.pexels.com/photos/7245231/pexels-photo-7245231.jpeg?auto=compress&cs=tinysrgb&h=650&w=940",
                "medium": "https://images.pexels.com/photos/7245231/pexels-photo-7245231.jpeg?auto=compress&cs=tinysrgb&h=350",
                "small": "https://images.pexels.com/photos/7245231/pexels-photo-7245231.jpeg?auto=compress&cs=tinysrgb&h=130",
                "portrait": "https://images.pexels.com/photos/7245231/pexels-photo-7245231.jpeg?auto=compress&cs=tinysrgb&fit=crop&h=1200&w=800",
                "landscape": "https://images.pexels.com/photos/7245231/pexels-photo-7245231.jpeg?auto=compress&cs=tinysrgb&fit=crop&h=627&w=1200",
                "tiny": "https://images.pexels.com/photos/7245231/pexels-photo-7245231.jpeg?auto=compress&cs=tinysrgb&dpr=1&fit=crop&h=200&w=280"
            },
            "liked": false,
            "alt": "Intricate baroque architecture of Prague buildings, showcasing stunning facades in warm sunlight."
        },
        {
            "id": 36754629,
            "width": 4000,
            "height": 6000,
            "url": "https://www.pexels.com/photo/street-vendor-with-bicycle-cart-in-hanoi-vietnam-36754629/",
            "photographer": "Elena Usai",
            "photographer_url": "https://www.pexels.com/@elena-usai-2160480779",
            "photographer_id": 2160480779,
            "avg_color": "#504835",
            "src": {
                "original": "https://images.pexels.com/photos/36754629/pexels-photo-36754629.jpeg",
                "large2x": "https://images.pexels.com/photos/36754629/pexels-photo-36754629.jpeg?auto=compress&cs=tinysrgb&dpr=2&h=650&w=940",
                "large": "https://images.pexels.com/photos/36754629/pexels-photo-36754629.jpeg?auto=compress&cs=tinysrgb&h=650&w=940",
                "medium": "https://images.pexels.com/photos/36754629/pexels-photo-36754629.jpeg?auto=compress&cs=tinysrgb&h=350",
                "small": "https://images.pexels.com/photos/36754629/pexels-photo-36754629.jpeg?auto=compress&cs=tinysrgb&h=130",
                "portrait": "https://images.pexels.com/photos/36754629/pexels-photo-36754629.jpeg?auto=compress&cs=tinysrgb&fit=crop&h=1200&w=800",
                "landscape": "https://images.pexels.com/photos/36754629/pexels-photo-36754629.jpeg?auto=compress&cs=tinysrgb&fit=crop&h=627&w=1200",
                "tiny": "https://images.pexels.com/photos/36754629/pexels-photo-36754629.jpeg?auto=compress&cs=tinysrgb&dpr=1&fit=crop&h=200&w=280"
            },
            "liked": false,
            "alt": "Street vendor pushing a bicycle cart loaded with various fruits and vegetables under warm sunlight in Hanoi, Vietnam."
        },
        {
            "id": 36341989,
            "width": 7360,
            "height": 4912,
            "url": "https://www.pexels.com/photo/close-up-of-sedimentary-rock-with-mineral-vein-36341989/",
            "photographer": "Santos Malekar",
            "photographer_url": "https://www.pexels.com/@santos-malekar-2159865938",
            "photographer_id": 2159865938,
            "avg_color": "#6F4B35",
            "src": {
                "original": "https://images.pexels.com/photos/36341989/pexels-photo-36341989.jpeg",
                "large2x": "https://images.pexels.com/photos/36341989/pexels-photo-36341989.jpeg?auto=compress&cs=tinysrgb&dpr=2&h=650&w=940",
                "large": "https://images.pexels.com/photos/36341989/pexels-photo-36341989.jpeg?auto=compress&cs=tinysrgb&h=650&w=940",
                "medium": "https://images.pexels.com/photos/36341989/pexels-photo-36341989.jpeg?auto=compress&cs=tinysrgb&h=350",
                "small": "https://images.pexels.com/photos/36341989/pexels-photo-36341989.jpeg?auto=compress&cs=tinysrgb&h=130",
                "portrait": "https://images.pexels.com/photos/36341989/pexels-photo-36341989.jpeg?auto=compress&cs=tinysrgb&fit=crop&h=1200&w=800",
                "landscape": "https://images.pexels.com/photos/36341989/pexels-photo-36341989.jpeg?auto=compress&cs=tinysrgb&fit=crop&h=627&w=1200",
                "tiny": "https://images.pexels.com/photos/36341989/pexels-photo-36341989.jpeg?auto=compress&cs=tinysrgb&dpr=1&fit=crop&h=200&w=280"
            },
            "liked": false,
            "alt": "Detailed view of sedimentary rock featuring a prominent mineral vein across its surface."
        },
        {
            "id": 36329036,
            "width": 4160,
            "height": 6240,
            "url": "https://www.pexels.com/photo/reflective-disc-in-tranquil-stream-36329036/",
            "photographer": "Alexander Mass",
            "photographer_url": "https://www.pexels.com/@alexander-mass-748453803",
            "photographer_id": 748453803,
            "avg_color": "#5E4F38",
            "src": {
                "original": "https://images.pexels.com/photos/36329036/pexels-photo-36329036.jpeg",
                "large2x": "https://images.pexels.com/photos/36329036/pexels-photo-36329036.jpeg?auto=compress&cs=tinysrgb&dpr=2&h=650&w=940",
                "large": "https://images.pexels.com/photos/36329036/pexels-photo-36329036.jpeg?auto=compress&cs=tinysrgb&h=650&w=940",
                "medium": "https://images.pexels.com/photos/36329036/pexels-photo-36329036.jpeg?auto=compress&cs=tinysrgb&h=350",
                "small": "https://images.pexels.com/photos/36329036/pexels-photo-36329036.jpeg?auto=compress&cs=tinysrgb&h=130",
                "portrait": "https://images.pexels.com/photos/36329036/pexels-photo-36329036.jpeg?auto=compress&cs=tinysrgb&fit=crop&h=1200&w=800",
                "landscape": "https://images.pexels.com/photos/36329036/pexels-photo-36329036.jpeg?auto=compress&cs=tinysrgb&fit=crop&h=627&w=1200",
                "tiny": "https://images.pexels.com/photos/36329036/pexels-photo-36329036.jpeg?auto=compress&cs=tinysrgb&dpr=1&fit=crop&h=200&w=280"
            },
            "liked": false,
            "alt": "A person holding a reflective disc in a calm stream, creating a serene and artistic scene."
        },
        {
            "id": 36599121,
            "width": 5152,
            "height": 7728,
            "url": "https://www.pexels.com/photo/sunset-view-through-roman-doorway-in-italy-36599121/",
            "photographer": "BERK OZDEMIR",
            "photographer_url": "https://www.pexels.com/@berk-ozdemir-1761205",
            "photographer_id": 1761205,
            "avg_color": "#362923",
            "src": {
                "original": "https://images.pexels.com/photos/36599121/pexels-photo-36599121.jpeg",
                "large2x": "https://images.pexels.com/photos/36599121/pexels-photo-36599121.jpeg?auto=compress&cs=tinysrgb&dpr=2&h=650&w=940",
                "large": "https://images.pexels.com/photos/36599121/pexels-photo-36599121.jpeg?auto=compress&cs=tinysrgb&h=650&w=940",
                "medium": "https://images.pexels.com/photos/36599121/pexels-photo-36599121.jpeg?auto=compress&cs=tinysrgb&h=350",
                "small": "https://images.pexels.com/photos/36599121/pexels-photo-36599121.jpeg?auto=compress&cs=tinysrgb&h=130",
                "portrait": "https://images.pexels.com/photos/36599121/pexels-photo-36599121.jpeg?auto=compress&cs=tinysrgb&fit=crop&h=1200&w=800",
                "landscape": "https://images.pexels.com/photos/36599121/pexels-photo-36599121.jpeg?auto=compress&cs=tinysrgb&fit=crop&h=627&w=1200",
                "tiny": "https://images.pexels.com/photos/36599121/pexels-photo-36599121.jpeg?auto=compress&cs=tinysrgb&dpr=1&fit=crop&h=200&w=280"
            },
            "liked": false,
            "alt": "Captivating sunset framed by a Roman doorway, overlooking the cityscape of Rome, Italy."
        },
        {
            "id": 36246173,
            "width": 7008,
            "height": 4672,
            "url": "https://www.pexels.com/photo/close-up-of-sand-dunes-texture-in-desert-36246173/",
            "photographer": "Edoardo Tommasini",
            "photographer_url": "https://www.pexels.com/@edotommo99",
            "photographer_id": 172670,
            "avg_color": "#764B2B",
            "src": {
                "original": "https://images.pexels.com/photos/36246173/pexels-photo-36246173.jpeg",
                "large2x": "https://images.pexels.com/photos/36246173/pexels-photo-36246173.jpeg?auto=compress&cs=tinysrgb&dpr=2&h=650&w=940",
                "large": "https://images.pexels.com/photos/36246173/pexels-photo-36246173.jpeg?auto=compress&cs=tinysrgb&h=650&w=940",
                "medium": "https://images.pexels.com/photos/36246173/pexels-photo-36246173.jpeg?auto=compress&cs=tinysrgb&h=350",
                "small": "https://images.pexels.com/photos/36246173/pexels-photo-36246173.jpeg?auto=compress&cs=tinysrgb&h=130",
                "portrait": "https://images.pexels.com/photos/36246173/pexels-photo-36246173.jpeg?auto=compress&cs=tinysrgb&fit=crop&h=1200&w=800",
                "landscape": "https://images.pexels.com/photos/36246173/pexels-photo-36246173.jpeg?auto=compress&cs=tinysrgb&fit=crop&h=627&w=1200",
                "tiny": "https://images.pexels.com/photos/36246173/pexels-photo-36246173.jpeg?auto=compress&cs=tinysrgb&dpr=1&fit=crop&h=200&w=280"
            },
            "liked": false,
            "alt": "Detailed texture of sand dunes highlighting natural patterns and shapes."
        },
        {
            "id": 35917744,
            "width": 4000,
            "height": 6000,
            "url": "https://www.pexels.com/photo/stunning-interior-of-the-musee-d-orsay-paris-35917744/",
            "photographer": "Liisbet Luup",
            "photographer_url": "https://www.pexels.com/@liisbet-luup-121486327",
            "photographer_id": 121486327,
            "avg_color": "#71553D",
            "src": {
                "original": "https://images.pexels.com/photos/35917744/pexels-photo-35917744.jpeg",
                "large2x": "https://images.pexels.com/photos/35917744/pexels-photo-35917744.jpeg?auto=compress&cs=tinysrgb&dpr=2&h=650&w=940",
                "large": "https://images.pexels.com/photos/35917744/pexels-photo-35917744.jpeg?auto=compress&cs=tinysrgb&h=650&w=940",
                "medium": "https://images.pexels.com/photos/35917744/pexels-photo-35917744.jpeg?auto=compress&cs=tinysrgb&h=350",
                "small": "https://images.pexels.com/photos/35917744/pexels-photo-35917744.jpeg?auto=compress&cs=tinysrgb&h=130",
                "portrait": "https://images.pexels.com/photos/35917744/pexels-photo-35917744.jpeg?auto=compress&cs=tinysrgb&fit=crop&h=1200&w=800",
                "landscape": "https://images.pexels.com/photos/35917744/pexels-photo-35917744.jpeg?auto=compress&cs=tinysrgb&fit=crop&h=627&w=1200",
                "tiny": "https://images.pexels.com/photos/35917744/pexels-photo-35917744.jpeg?auto=compress&cs=tinysrgb&dpr=1&fit=crop&h=200&w=280"
            },
            "liked": false,
            "alt": "Explore the grand architecture of the Musée d'Orsay in Paris with its vaulted ceilings and historic charm."
        }
    ],
    "total_results": 62337,
    "next_page": "https://api.pexels.com/v1/v1/curated?page=2&per_page=15"
}
