{
    "page": 1,
    "per_page": 1,
    "photos": [
        {
            "id": 12377231,
            "width": 1965,
            "height": 3488,
            "url": "https://www.pexels.com/photo/a-green-trees-in-the-forest-12377231/",
            "photographer": "Danil Lysov",
            "photographer_url": "https://www.pexels.com/@danil-lysov-175964361",
            "photographer_id": 175964361,
            "avg_color": "#2A3121",
            "src": {
                "original": "https://images.pexels.com/photos/12377231/pexels-photo-12377231.jpeg",
                "large2x": "https://images.pexels.com/photos/12377231/pexels-photo-12377231.jpeg?auto=compress&cs=tinysrgb&dpr=2&h=650&w=940",
                "large": "https://images.pexels.com/photos/12377231/pexels-photo-12377231.jpeg?auto=compress&cs=tinysrgb&h=650&w=940",
                "medium": "https://images.pexels.com/photos/12377231/pexels-photo-12377231.jpeg?auto=compress&cs=tinysrgb&h=350",
                "small": "https://images.pexels.com/photos/12377231/pexels-photo-12377231.jpeg?auto=compress&cs=tinysrgb&h=130",
                "portrait": "https://images.pexels.com/photos/12377231/pexels-photo-12377231.jpeg?auto=compress&cs=tinysrgb&fit=crop&h=1200&w=800",
                "landscape": "https://images.pexels.com/photos/12377231/pexels-photo-12377231.jpeg?auto=compress&cs=tinysrgb&fit=crop&h=627&w=1200",
                "tiny": "https://images.pexels.com/photos/12377231/pexels-photo-12377231.jpeg?auto=compress&cs=tinysrgb&dpr=1&fit=crop&h=200&w=280"
            },
            "liked": false,
            "alt": "Dense greenery in a tranquil forest setting with tall trees and natural light."
        }
    ],
    "total_results": 8000,
    "next_page": "https://api.pexels.com/v1/v1/search?page=2&per_page=1&query=nature"
}
